<svg id="mermaid-1531882126169" width="100%" xmlns="http://www.w3.org/2000/svg" style="max-width: 1445.0999908447266px;" viewBox="0 0 1445.0999908447266 789.75"><style>


#mermaid-1531882126169 .label {
  font-family: 'trebuchet ms', verdana, arial;
  color: #333; }

#mermaid-1531882126169 .node rect,
#mermaid-1531882126169 .node circle,
#mermaid-1531882126169 .node ellipse,
#mermaid-1531882126169 .node polygon {
  fill: #ECECFF;
  stroke: #9370DB;
  stroke-width: 1px; }

#mermaid-1531882126169 .node.clickable {
  cursor: pointer; }

#mermaid-1531882126169 .arrowheadPath {
  fill: #333333; }

#mermaid-1531882126169 .edgePath .path {
  stroke: #333333;
  stroke-width: 1.5px; }

#mermaid-1531882126169 .edgeLabel {
  background-color: #e8e8e8; }

#mermaid-1531882126169 .cluster rect {
  fill: #ffffde !important;
  stroke: #aaaa33 !important;
  stroke-width: 1px !important; }

#mermaid-1531882126169 .cluster text {
  fill: #333; }

#mermaid-1531882126169 div.mermaidTooltip {
  position: absolute;
  text-align: center;
  max-width: 200px;
  padding: 2px;
  font-family: 'trebuchet ms', verdana, arial;
  font-size: 12px;
  background: #ffffde;
  border: 1px solid #aaaa33;
  border-radius: 2px;
  pointer-events: none;
  z-index: 100; }

#mermaid-1531882126169 .actor {
  stroke: #CCCCFF;
  fill: #ECECFF; }

#mermaid-1531882126169 text.actor {
  fill: black;
  stroke: none; }

#mermaid-1531882126169 .actor-line {
  stroke: grey; }

#mermaid-1531882126169 .messageLine0 {
  stroke-width: 1.5;
  stroke-dasharray: '2 2';
  marker-end: 'url(#arrowhead)';
  stroke: #333; }

#mermaid-1531882126169 .messageLine1 {
  stroke-width: 1.5;
  stroke-dasharray: '2 2';
  stroke: #333; }

#mermaid-1531882126169 #arrowhead {
  fill: #333; }

#mermaid-1531882126169 #crosshead path {
  fill: #333 !important;
  stroke: #333 !important; }

#mermaid-1531882126169 .messageText {
  fill: #333;
  stroke: none; }

#mermaid-1531882126169 .labelBox {
  stroke: #CCCCFF;
  fill: #ECECFF; }

#mermaid-1531882126169 .labelText {
  fill: black;
  stroke: none; }

#mermaid-1531882126169 .loopText {
  fill: black;
  stroke: none; }

#mermaid-1531882126169 .loopLine {
  stroke-width: 2;
  stroke-dasharray: '2 2';
  marker-end: 'url(#arrowhead)';
  stroke: #CCCCFF; }

#mermaid-1531882126169 .note {
  stroke: #aaaa33;
  fill: #fff5ad; }

#mermaid-1531882126169 .noteText {
  fill: black;
  stroke: none;
  font-family: 'trebuchet ms', verdana, arial;
  font-size: 14px; }


#mermaid-1531882126169 .section {
  stroke: none;
  opacity: 0.2; }

#mermaid-1531882126169 .section0 {
  fill: rgba(102, 102, 255, 0.49); }

#mermaid-1531882126169 .section2 {
  fill: #fff400; }

#mermaid-1531882126169 .section1,
#mermaid-1531882126169 .section3 {
  fill: white;
  opacity: 0.2; }

#mermaid-1531882126169 .sectionTitle0 {
  fill: #333; }

#mermaid-1531882126169 .sectionTitle1 {
  fill: #333; }

#mermaid-1531882126169 .sectionTitle2 {
  fill: #333; }

#mermaid-1531882126169 .sectionTitle3 {
  fill: #333; }

#mermaid-1531882126169 .sectionTitle {
  text-anchor: start;
  font-size: 11px;
  text-height: 14px; }


#mermaid-1531882126169 .grid .tick {
  stroke: lightgrey;
  opacity: 0.3;
  shape-rendering: crispEdges; }

#mermaid-1531882126169 .grid path {
  stroke-width: 0; }


#mermaid-1531882126169 .today {
  fill: none;
  stroke: red;
  stroke-width: 2px; }



#mermaid-1531882126169 .task {
  stroke-width: 2; }

#mermaid-1531882126169 .taskText {
  text-anchor: middle;
  font-size: 11px; }

#mermaid-1531882126169 .taskTextOutsideRight {
  fill: black;
  text-anchor: start;
  font-size: 11px; }

#mermaid-1531882126169 .taskTextOutsideLeft {
  fill: black;
  text-anchor: end;
  font-size: 11px; }


#mermaid-1531882126169 .taskText0,
#mermaid-1531882126169 .taskText1,
#mermaid-1531882126169 .taskText2,
#mermaid-1531882126169 .taskText3 {
  fill: white; }

#mermaid-1531882126169 .task0,
#mermaid-1531882126169 .task1,
#mermaid-1531882126169 .task2,
#mermaid-1531882126169 .task3 {
  fill: #8a90dd;
  stroke: #534fbc; }

#mermaid-1531882126169 .taskTextOutside0,
#mermaid-1531882126169 .taskTextOutside2 {
  fill: black; }

#mermaid-1531882126169 .taskTextOutside1,
#mermaid-1531882126169 .taskTextOutside3 {
  fill: black; }


#mermaid-1531882126169 .active0,
#mermaid-1531882126169 .active1,
#mermaid-1531882126169 .active2,
#mermaid-1531882126169 .active3 {
  fill: #bfc7ff;
  stroke: #534fbc; }

#mermaid-1531882126169 .activeText0,
#mermaid-1531882126169 .activeText1,
#mermaid-1531882126169 .activeText2,
#mermaid-1531882126169 .activeText3 {
  fill: black !important; }


#mermaid-1531882126169 .done0,
#mermaid-1531882126169 .done1,
#mermaid-1531882126169 .done2,
#mermaid-1531882126169 .done3 {
  stroke: grey;
  fill: lightgrey;
  stroke-width: 2; }

#mermaid-1531882126169 .doneText0,
#mermaid-1531882126169 .doneText1,
#mermaid-1531882126169 .doneText2,
#mermaid-1531882126169 .doneText3 {
  fill: black !important; }


#mermaid-1531882126169 .crit0,
#mermaid-1531882126169 .crit1,
#mermaid-1531882126169 .crit2,
#mermaid-1531882126169 .crit3 {
  stroke: #ff8888;
  fill: red;
  stroke-width: 2; }

#mermaid-1531882126169 .activeCrit0,
#mermaid-1531882126169 .activeCrit1,
#mermaid-1531882126169 .activeCrit2,
#mermaid-1531882126169 .activeCrit3 {
  stroke: #ff8888;
  fill: #bfc7ff;
  stroke-width: 2; }

#mermaid-1531882126169 .doneCrit0,
#mermaid-1531882126169 .doneCrit1,
#mermaid-1531882126169 .doneCrit2,
#mermaid-1531882126169 .doneCrit3 {
  stroke: #ff8888;
  fill: lightgrey;
  stroke-width: 2;
  cursor: pointer;
  shape-rendering: crispEdges; }

#mermaid-1531882126169 .doneCritText0,
#mermaid-1531882126169 .doneCritText1,
#mermaid-1531882126169 .doneCritText2,
#mermaid-1531882126169 .doneCritText3 {
  fill: black !important; }

#mermaid-1531882126169 .activeCritText0,
#mermaid-1531882126169 .activeCritText1,
#mermaid-1531882126169 .activeCritText2,
#mermaid-1531882126169 .activeCritText3 {
  fill: black !important; }

#mermaid-1531882126169 .titleText {
  text-anchor: middle;
  font-size: 18px;
  fill: black; }

#mermaid-1531882126169 g.classGroup text {
  fill: #9370DB;
  stroke: none;
  font-family: 'trebuchet ms', verdana, arial;
  font-size: 10px; }

#mermaid-1531882126169 g.classGroup rect {
  fill: #ECECFF;
  stroke: #9370DB; }

#mermaid-1531882126169 g.classGroup line {
  stroke: #9370DB;
  stroke-width: 1; }

#mermaid-1531882126169 .classLabel .box {
  stroke: none;
  stroke-width: 0;
  fill: #ECECFF;
  opacity: 0.5; }

#mermaid-1531882126169 .classLabel .label {
  fill: #9370DB;
  font-size: 10px; }

#mermaid-1531882126169 .relation {
  stroke: #9370DB;
  stroke-width: 1;
  fill: none; }

#mermaid-1531882126169 #compositionStart {
  fill: #9370DB;
  stroke: #9370DB;
  stroke-width: 1; }

#mermaid-1531882126169 #compositionEnd {
  fill: #9370DB;
  stroke: #9370DB;
  stroke-width: 1; }

#mermaid-1531882126169 #aggregationStart {
  fill: #ECECFF;
  stroke: #9370DB;
  stroke-width: 1; }

#mermaid-1531882126169 #aggregationEnd {
  fill: #ECECFF;
  stroke: #9370DB;
  stroke-width: 1; }

#mermaid-1531882126169 #dependencyStart {
  fill: #9370DB;
  stroke: #9370DB;
  stroke-width: 1; }

#mermaid-1531882126169 #dependencyEnd {
  fill: #9370DB;
  stroke: #9370DB;
  stroke-width: 1; }

#mermaid-1531882126169 #extensionStart {
  fill: #9370DB;
  stroke: #9370DB;
  stroke-width: 1; }

#mermaid-1531882126169 #extensionEnd {
  fill: #9370DB;
  stroke: #9370DB;
  stroke-width: 1; }

#mermaid-1531882126169 .commit-id,
#mermaid-1531882126169 .commit-msg,
#mermaid-1531882126169 .branch-label {
  fill: lightgrey;
  color: lightgrey; }
</style><style>#mermaid-1531882126169 {
    color: rgba(0, 0, 0, 0.65);
    font: ;
  }</style><g transform="translate(-12, -12)"><g class="output"><g class="clusters"><g class="cluster" id="subGraph4" style="opacity: 1;" transform="translate(1235.3583221435547,119.625)"><rect width="427.48333740234375" height="199.25" x="-213.74166870117188" y="-99.625"></rect><g class="label"><g transform="translate(0,0)"><foreignObject width="0" height="0"><div xmlns="http://www.w3.org/1999/xhtml" style="display: inline-block; white-space: nowrap;"></div></foreignObject></g></g><text x="0" y="-85.625" fill="black" stroke="none" id="mermaid-1531882126169Text" style="text-anchor: middle;">Content Pipeline for Repo 1</text></g><g class="cluster" id="subGraph3" style="opacity: 1;" transform="translate(1235.3583221435547,321.125)"><rect width="427.48333740234375" height="163.75" x="-213.74166870117188" y="-81.875"></rect><g class="label"><g transform="translate(0,0)"><foreignObject width="0" height="0"><div xmlns="http://www.w3.org/1999/xhtml" style="display: inline-block; white-space: nowrap;"></div></foreignObject></g></g><text x="0" y="-67.875" fill="black" stroke="none" id="mermaid-1531882126169Text" style="text-anchor: middle;">Content Pipeline for Repo 2</text></g><g class="cluster" id="subGraph2" style="opacity: 1;" transform="translate(1235.3583221435547,503.75)"><rect width="427.48333740234375" height="161.5" x="-213.74166870117188" y="-80.75"></rect><g class="label"><g transform="translate(0,0)"><foreignObject width="0" height="0"><div xmlns="http://www.w3.org/1999/xhtml" style="display: inline-block; white-space: nowrap;"></div></foreignObject></g></g><text x="0" y="-66.75" fill="black" stroke="none" id="mermaid-1531882126169Text" style="text-anchor: middle;">Content Pipeline for Repo 3</text></g><g class="cluster" id="subGraph1" style="opacity: 1;" transform="translate(1235.3583221435547,699.125)"><rect width="427.48333740234375" height="189.25" x="-213.74166870117188" y="-94.625"></rect><g class="label"><g transform="translate(0,0)"><foreignObject width="0" height="0"><div xmlns="http://www.w3.org/1999/xhtml" style="display: inline-block; white-space: nowrap;"></div></foreignObject></g></g><text x="0" y="-80.625" fill="black" stroke="none" id="mermaid-1531882126169Text" style="text-anchor: middle;">Content Pipeline for Repo 4</text></g><g class="cluster" id="subGraph0" style="opacity: 1;" transform="translate(545.2166595458984,415.75)"><rect width="597.1666564941406" height="357.5" x="-298.5833282470703" y="-178.75"></rect><g class="label"><g transform="translate(0,0)"><foreignObject width="0" height="0"><div xmlns="http://www.w3.org/1999/xhtml" style="display: inline-block; white-space: nowrap;"></div></foreignObject></g></g><text x="0" y="-164.75" fill="black" stroke="none" id="mermaid-1531882126169Text" style="text-anchor: middle;">Control Pipeline</text></g></g><g class="edgePaths"><g class="edgePath" style="opacity: 1;"><path class="path" d="M196.63333129882812,423L200.79999796549478,423C204.96666463216147,423,213.29999796549478,423,221.63333129882812,423C229.96666463216147,423,238.29999796549478,423,246.63333129882812,423C254.96666463216147,423,263.2999979654948,423,267.46666463216144,423L271.6333312988281,423" marker-end="url(#arrowhead47384)" style="stroke:#FFF;stroke-width:0;fill:none;"></path><defs><marker id="arrowhead47384" viewBox="0 0 10 10" refX="9" refY="5" markerUnits="strokeWidth" markerWidth="8" markerHeight="6" orient="auto"><path d="M 0 0 L 10 5 L 0 10 z" class="arrowheadPath" style="stroke-width: 1; stroke-dasharray: 1, 0;"></path></marker></defs></g><g class="edgePath" style="opacity: 1;"><path class="path" d="M788.0833206176758,67.75L797.369431813558,67.75C806.6555430094401,67.75,825.2277654012045,67.75,849.3319320678711,67.75C873.4360987345377,67.75,903.0722096761068,67.75,932.7083206176758,67.75C962.3444315592448,67.75,991.9805425008138,67.75,1014.9740233435646,73.58333333333333C1037.9675041863154,79.41666666666667,1054.3183549302478,91.08333333333333,1062.493780302214,96.91666666666667L1070.6692056741801,102.75" marker-end="url(#arrowhead47385)" style="fill:none"></path><defs><marker id="arrowhead47385" viewBox="0 0 10 10" refX="9" refY="5" markerUnits="strokeWidth" markerWidth="8" markerHeight="6" orient="auto"><path d="M 0 0 L 10 5 L 0 10 z" class="arrowheadPath" style="stroke-width: 1; stroke-dasharray: 1, 0;"></path></marker></defs></g><g class="edgePath" style="opacity: 1;"><path class="path" d="M368.96665954589844,423L377.31249237060547,423C385.6583251953125,423,402.34999084472656,423,419.0416564941406,423C435.7333221435547,423,452.42498779296875,423,460.7708206176758,423L469.1166534423828,423" marker-end="url(#arrowhead47386)" style="fill:none"></path><defs><marker id="arrowhead47386" viewBox="0 0 10 10" refX="9" refY="5" markerUnits="strokeWidth" markerWidth="8" markerHeight="6" orient="auto"><path d="M 0 0 L 10 5 L 0 10 z" class="arrowheadPath" style="stroke-width: 1; stroke-dasharray: 1, 0;"></path></marker></defs></g><g class="edgePath" style="opacity: 1;"><path class="path" d="M562.1999816894531,423L568.7305374145508,423C575.2610931396484,423,588.3222045898438,423,601.3833160400391,423C614.4444274902344,423,627.5055389404297,423,634.0360946655273,423L640.566650390625,423" marker-end="url(#arrowhead47387)" style="fill:none"></path><defs><marker id="arrowhead47387" viewBox="0 0 10 10" refX="9" refY="5" markerUnits="strokeWidth" markerWidth="8" markerHeight="6" orient="auto"><path d="M 0 0 L 10 5 L 0 10 z" class="arrowheadPath" style="stroke-width: 1; stroke-dasharray: 1, 0;"></path></marker></defs></g><g class="edgePath" style="opacity: 1;"><path class="path" d="M747.174098219827,443.5L763.2784131486839,462.375C779.382728077541,481.25,811.5913579352549,519,842.5137283348963,553.7916666666666C873.4360987345377,588.5833333333334,903.0722096761068,620.4166666666666,932.7083206176758,636.3333333333334C962.3444315592448,652.25,991.9805425008138,652.25,1016.6722574677578,663.1666666666666C1041.363972434702,674.0833333333334,1061.111291427021,695.9166666666666,1070.9849509231803,706.8333333333334L1080.8586104193398,717.75" marker-end="url(#arrowhead47388)" style="fill:none"></path><defs><marker id="arrowhead47388" viewBox="0 0 10 10" refX="9" refY="5" markerUnits="strokeWidth" markerWidth="8" markerHeight="6" orient="auto"><path d="M 0 0 L 10 5 L 0 10 z" class="arrowheadPath" style="stroke-width: 1; stroke-dasharray: 1, 0;"></path></marker></defs></g><g class="edgePath" style="opacity: 1;"><path class="path" d="M1152.1833190917969,738.25L1158.7138748168945,738.25C1165.2444305419922,738.25,1178.3055419921875,738.25,1191.3666534423828,738.25C1204.4277648925781,738.25,1217.4888763427734,738.25,1224.019432067871,738.25L1230.5499877929688,738.25" marker-end="url(#arrowhead47389)" style="fill:none"></path><defs><marker id="arrowhead47389" viewBox="0 0 10 10" refX="9" refY="5" markerUnits="strokeWidth" markerWidth="8" markerHeight="6" orient="auto"><path d="M 0 0 L 10 5 L 0 10 z" class="arrowheadPath" style="stroke-width: 1; stroke-dasharray: 1, 0;"></path></marker></defs></g><g class="edgePath" style="opacity: 1;"><path class="path" d="M778.6758156022477,443.5L789.5298443007013,448.0416666666667C800.3838729991547,452.5833333333333,822.0919303960618,461.6666666666667,847.7640145652998,466.2083333333333C873.4360987345377,470.75,903.0722096761068,470.75,932.7083206176758,470.75C962.3444315592448,470.75,991.9805425008138,470.75,1013.6177533541112,474.5416666666667C1035.2549642074084,478.3333333333333,1048.8932749724343,485.9166666666667,1055.712430354947,489.7083333333333L1062.5315857374599,493.5" marker-end="url(#arrowhead47390)" style="fill:none"></path><defs><marker id="arrowhead47390" viewBox="0 0 10 10" refX="9" refY="5" markerUnits="strokeWidth" markerWidth="8" markerHeight="6" orient="auto"><path d="M 0 0 L 10 5 L 0 10 z" class="arrowheadPath" style="stroke-width: 1; stroke-dasharray: 1, 0;"></path></marker></defs></g><g class="edgePath" style="opacity: 1;"><path class="path" d="M1152.1833190917969,514L1158.7138748168945,514C1165.2444305419922,514,1178.3055419921875,514,1191.3666534423828,514C1204.4277648925781,514,1217.4888763427734,514,1224.019432067871,514L1230.5499877929688,514" marker-end="url(#arrowhead47391)" style="fill:none"></path><defs><marker id="arrowhead47391" viewBox="0 0 10 10" refX="9" refY="5" markerUnits="strokeWidth" markerWidth="8" markerHeight="6" orient="auto"><path d="M 0 0 L 10 5 L 0 10 z" class="arrowheadPath" style="stroke-width: 1; stroke-dasharray: 1, 0;"></path></marker></defs></g><g class="edgePath" style="opacity: 1;"><path class="path" d="M788.0833206176758,181.5L797.369431813558,181.5C806.6555430094401,181.5,825.2277654012045,181.5,849.3319320678711,199.08333333333334C873.4360987345377,216.66666666666666,903.0722096761068,251.83333333333334,932.7083206176758,269.4166666666667C962.3444315592448,287,991.9805425008138,287,1010.965264638265,288.21866296061506C1029.949986775716,289.4373259212302,1038.2833201090496,291.87465184246037,1042.449986775716,293.09331480307543L1046.6166534423828,294.31197776369055" marker-end="url(#arrowhead47392)" style="fill:none"></path><defs><marker id="arrowhead47392" viewBox="0 0 10 10" refX="9" refY="5" markerUnits="strokeWidth" markerWidth="8" markerHeight="6" orient="auto"><path d="M 0 0 L 10 5 L 0 10 z" class="arrowheadPath" style="stroke-width: 1; stroke-dasharray: 1, 0;"></path></marker></defs></g><g class="edgePath" style="opacity: 1;"><path class="path" d="M770.1922664229488,402.5L782.4602199846189,396.2916666666667C794.7281735462888,390.0833333333333,819.2640806696287,377.6666666666667,846.3500897020832,371.4583333333333C873.4360987345377,365.25,903.0722096761068,365.25,932.7083206176758,365.25C962.3444315592448,365.25,991.9805425008138,365.25,1014.9740233435646,359.4166666666667C1037.9675041863154,353.5833333333333,1054.3183549302478,341.9166666666667,1062.493780302214,336.0833333333333L1070.6692056741801,330.25" marker-end="url(#arrowhead47393)" style="fill:none"></path><defs><marker id="arrowhead47393" viewBox="0 0 10 10" refX="9" refY="5" markerUnits="strokeWidth" markerWidth="8" markerHeight="6" orient="auto"><path d="M 0 0 L 10 5 L 0 10 z" class="arrowheadPath" style="stroke-width: 1; stroke-dasharray: 1, 0;"></path></marker></defs></g><g class="edgePath" style="opacity: 1;"><path class="path" d="M1152.1833190917969,309.75L1158.7138748168945,309.75C1165.2444305419922,309.75,1178.3055419921875,309.75,1191.3666534423828,309.75C1204.4277648925781,309.75,1217.4888763427734,309.75,1224.019432067871,309.75L1230.5499877929688,309.75" marker-end="url(#arrowhead47394)" style="fill:none"></path><defs><marker id="arrowhead47394" viewBox="0 0 10 10" refX="9" refY="5" markerUnits="strokeWidth" markerWidth="8" markerHeight="6" orient="auto"><path d="M 0 0 L 10 5 L 0 10 z" class="arrowheadPath" style="stroke-width: 1; stroke-dasharray: 1, 0;"></path></marker></defs></g><g class="edgePath" style="opacity: 1;"><path class="path" d="M746.6047781035438,402.5L762.803979718448,382.875C779.0031813333521,363.25,811.4015845631606,324,842.4188416488491,287.1666666666667C873.4360987345377,250.33333333333334,903.0722096761068,215.91666666666666,932.7083206176758,198.70833333333334C962.3444315592448,181.5,991.9805425008138,181.5,1015.2000881407906,175.20833333333334C1038.4196337807673,168.91666666666666,1055.2226141191518,156.33333333333334,1063.6241042883441,150.04166666666666L1072.0255944575363,143.75" marker-end="url(#arrowhead47395)" style="fill:none"></path><defs><marker id="arrowhead47395" viewBox="0 0 10 10" refX="9" refY="5" markerUnits="strokeWidth" markerWidth="8" markerHeight="6" orient="auto"><path d="M 0 0 L 10 5 L 0 10 z" class="arrowheadPath" style="stroke-width: 1; stroke-dasharray: 1, 0;"></path></marker></defs></g><g class="edgePath" style="opacity: 1;"><path class="path" d="M1145.941650390625,123.25L1153.5124842325847,123.25C1161.0833180745442,123.25,1176.2249857584636,123.25,1190.3263753255208,123.25C1204.4277648925781,123.25,1217.4888763427734,123.25,1224.019432067871,123.25L1230.5499877929688,123.25" marker-end="url(#arrowhead47396)" style="fill:none"></path><defs><marker id="arrowhead47396" viewBox="0 0 10 10" refX="9" refY="5" markerUnits="strokeWidth" markerWidth="8" markerHeight="6" orient="auto"><path d="M 0 0 L 10 5 L 0 10 z" class="arrowheadPath" style="stroke-width: 1; stroke-dasharray: 1, 0;"></path></marker></defs></g><g class="edgePath" style="opacity: 1;"><path class="path" d="M788.0833206176758,756L797.369431813558,756C806.6555430094401,756,825.2277654012045,756,849.3319320678711,756C873.4360987345377,756,903.0722096761068,756,932.7083206176758,756C962.3444315592448,756,991.9805425008138,756,1010.965264638265,755.0491750527068C1029.949986775716,754.0983501054138,1038.2833201090496,752.1967002108277,1042.449986775716,751.2458752635345L1046.6166534423828,750.2950503162415" marker-end="url(#arrowhead47397)" style="fill:none"></path><defs><marker id="arrowhead47397" viewBox="0 0 10 10" refX="9" refY="5" markerUnits="strokeWidth" markerWidth="8" markerHeight="6" orient="auto"><path d="M 0 0 L 10 5 L 0 10 z" class="arrowheadPath" style="stroke-width: 1; stroke-dasharray: 1, 0;"></path></marker></defs></g><g class="edgePath" style="opacity: 1;"><path class="path" d="M788.0833206176758,650L797.369431813558,650C806.6555430094401,650,825.2277654012045,650,849.3319320678711,632.7916666666666C873.4360987345377,615.5833333333334,903.0722096761068,581.1666666666666,932.7083206176758,563.9583333333334C962.3444315592448,546.75,991.9805425008138,546.75,1011.6476861502379,544.7083333333334C1031.314829799662,542.6666666666666,1041.013006156941,538.5833333333334,1045.8620943355804,536.5416666666666L1050.71118251422,534.5" marker-end="url(#arrowhead47398)" style="fill:none"></path><defs><marker id="arrowhead47398" viewBox="0 0 10 10" refX="9" refY="5" markerUnits="strokeWidth" markerWidth="8" markerHeight="6" orient="auto"><path d="M 0 0 L 10 5 L 0 10 z" class="arrowheadPath" style="stroke-width: 1; stroke-dasharray: 1, 0;"></path></marker></defs></g></g><g class="edgeLabels"><g class="edgeLabel" style="opacity: 1;" transform=""><g transform="translate(0,0)" class="label"><text><tspan xml:space="preserve" dy="1em" x="1"></tspan></text></g></g><g class="edgeLabel" style="opacity: 1;" transform="translate(932.7083206176758,67.75)"><g transform="translate(-25.074996948242188,-10.5)" class="label"><foreignObject width="50.149993896484375" height="21"><div xmlns="http://www.w3.org/1999/xhtml" style="display: inline-block; white-space: nowrap;"><span class="edgeLabel">triggers</span></div></foreignObject></g></g><g class="edgeLabel" style="opacity: 1;" transform="translate(419.0416564941406,423)"><g transform="translate(-25.074996948242188,-10.5)" class="label"><foreignObject width="50.149993896484375" height="21"><div xmlns="http://www.w3.org/1999/xhtml" style="display: inline-block; white-space: nowrap;"><span class="edgeLabel">triggers</span></div></foreignObject></g></g><g class="edgeLabel" style="opacity: 1;" transform="translate(601.3833160400391,423)"><g transform="translate(-14.183334350585938,-10.5)" class="label"><foreignObject width="28.366668701171875" height="21"><div xmlns="http://www.w3.org/1999/xhtml" style="display: inline-block; white-space: nowrap;"><span class="edgeLabel">runs</span></div></foreignObject></g></g><g class="edgeLabel" style="opacity: 1;" transform="translate(932.7083206176758,652.25)"><g transform="translate(-63.90833282470703,-10.5)" class="label"><foreignObject width="127.81666564941406" height="21"><div xmlns="http://www.w3.org/1999/xhtml" style="display: inline-block; white-space: nowrap;"><span class="edgeLabel">triggers on first add</span></div></foreignObject></g></g><g class="edgeLabel" style="opacity: 1;" transform="translate(1191.3666534423828,738.25)"><g transform="translate(-14.183334350585938,-10.5)" class="label"><foreignObject width="28.366668701171875" height="21"><div xmlns="http://www.w3.org/1999/xhtml" style="display: inline-block; white-space: nowrap;"><span class="edgeLabel">runs</span></div></foreignObject></g></g><g class="edgeLabel" style="opacity: 1;" transform="translate(932.7083206176758,470.75)"><g transform="translate(-63.90833282470703,-10.5)" class="label"><foreignObject width="127.81666564941406" height="21"><div xmlns="http://www.w3.org/1999/xhtml" style="display: inline-block; white-space: nowrap;"><span class="edgeLabel">triggers on first add</span></div></foreignObject></g></g><g class="edgeLabel" style="opacity: 1;" transform="translate(1191.3666534423828,514)"><g transform="translate(-14.183334350585938,-10.5)" class="label"><foreignObject width="28.366668701171875" height="21"><div xmlns="http://www.w3.org/1999/xhtml" style="display: inline-block; white-space: nowrap;"><span class="edgeLabel">runs</span></div></foreignObject></g></g><g class="edgeLabel" style="opacity: 1;" transform="translate(932.7083206176758,287)"><g transform="translate(-25.074996948242188,-10.5)" class="label"><foreignObject width="50.149993896484375" height="21"><div xmlns="http://www.w3.org/1999/xhtml" style="display: inline-block; white-space: nowrap;"><span class="edgeLabel">triggers</span></div></foreignObject></g></g><g class="edgeLabel" style="opacity: 1;" transform="translate(932.7083206176758,365.25)"><g transform="translate(-63.90833282470703,-10.5)" class="label"><foreignObject width="127.81666564941406" height="21"><div xmlns="http://www.w3.org/1999/xhtml" style="display: inline-block; white-space: nowrap;"><span class="edgeLabel">triggers on first add</span></div></foreignObject></g></g><g class="edgeLabel" style="opacity: 1;" transform="translate(1191.3666534423828,309.75)"><g transform="translate(-14.183334350585938,-10.5)" class="label"><foreignObject width="28.366668701171875" height="21"><div xmlns="http://www.w3.org/1999/xhtml" style="display: inline-block; white-space: nowrap;"><span class="edgeLabel">runs</span></div></foreignObject></g></g><g class="edgeLabel" style="opacity: 1;" transform="translate(932.7083206176758,181.5)"><g transform="translate(-63.90833282470703,-10.5)" class="label"><foreignObject width="127.81666564941406" height="21"><div xmlns="http://www.w3.org/1999/xhtml" style="display: inline-block; white-space: nowrap;"><span class="edgeLabel">triggers on first add</span></div></foreignObject></g></g><g class="edgeLabel" style="opacity: 1;" transform="translate(1191.3666534423828,123.25)"><g transform="translate(-14.183334350585938,-10.5)" class="label"><foreignObject width="28.366668701171875" height="21"><div xmlns="http://www.w3.org/1999/xhtml" style="display: inline-block; white-space: nowrap;"><span class="edgeLabel">runs</span></div></foreignObject></g></g><g class="edgeLabel" style="opacity: 1;" transform="translate(932.7083206176758,756)"><g transform="translate(-25.074996948242188,-10.5)" class="label"><foreignObject width="50.149993896484375" height="21"><div xmlns="http://www.w3.org/1999/xhtml" style="display: inline-block; white-space: nowrap;"><span class="edgeLabel">triggers</span></div></foreignObject></g></g><g class="edgeLabel" style="opacity: 1;" transform="translate(932.7083206176758,546.75)"><g transform="translate(-25.074996948242188,-10.5)" class="label"><foreignObject width="50.149993896484375" height="21"><div xmlns="http://www.w3.org/1999/xhtml" style="display: inline-block; white-space: nowrap;"><span class="edgeLabel">triggers</span></div></foreignObject></g></g></g><g class="nodes"><g class="node" style="opacity: 1;" id="job1" transform="translate(729.6833190917969,423)"><rect rx="0" ry="0" x="-89.11666870117188" y="-20.5" width="178.23333740234375" height="41"></rect><g class="label" transform="translate(0,0)"><g transform="translate(-79.11666870117188,-10.5)"><foreignObject width="158.23333740234375" height="21"><div xmlns="http://www.w3.org/1999/xhtml" style="display: inline-block; white-space: nowrap;">Control Repo Jenkins Job</div></foreignObject></g></g></g><g class="node" style="opacity: 1;" id="jenkinsfile2" transform="translate(1099.3999862670898,123.25)"><rect rx="0" ry="0" x="-46.541664123535156" y="-20.5" width="93.08332824707031" height="41"></rect><g class="label" transform="translate(0,0)"><g transform="translate(-36.541664123535156,-10.5)"><foreignObject width="73.08332824707031" height="21"><div xmlns="http://www.w3.org/1999/xhtml" style="display: inline-block; white-space: nowrap;">jenkinsfile2</div></foreignObject></g></g></g><g class="node" style="opacity: 1;" id="job2" transform="translate(1327.3249893188477,123.25)"><rect rx="0" ry="0" x="-96.7750015258789" y="-20.5" width="193.5500030517578" height="41"></rect><g class="label" transform="translate(0,0)"><g transform="translate(-86.7750015258789,-10.5)"><foreignObject width="173.5500030517578" height="21"><div xmlns="http://www.w3.org/1999/xhtml" style="display: inline-block; white-space: nowrap;">Content Repo 1 Jenkins Job</div></foreignObject></g></g></g><g class="node" style="opacity: 1;" id="jenkinsfile2.2" transform="translate(1099.3999862670898,309.75)"><rect rx="0" ry="0" x="-52.78333282470703" y="-20.5" width="105.56666564941406" height="41"></rect><g class="label" transform="translate(0,0)"><g transform="translate(-42.78333282470703,-10.5)"><foreignObject width="85.56666564941406" height="21"><div xmlns="http://www.w3.org/1999/xhtml" style="display: inline-block; white-space: nowrap;">jenkinsfile2.2</div></foreignObject></g></g></g><g class="node" style="opacity: 1;" id="job3" transform="translate(1327.3249893188477,309.75)"><rect rx="0" ry="0" x="-96.7750015258789" y="-20.5" width="193.5500030517578" height="41"></rect><g class="label" transform="translate(0,0)"><g transform="translate(-86.7750015258789,-10.5)"><foreignObject width="173.5500030517578" height="21"><div xmlns="http://www.w3.org/1999/xhtml" style="display: inline-block; white-space: nowrap;">Content Repo 2 Jenkins Job</div></foreignObject></g></g></g><g class="node" style="opacity: 1;" id="jenkinsfile2.3" transform="translate(1099.3999862670898,514)"><rect rx="0" ry="0" x="-52.78333282470703" y="-20.5" width="105.56666564941406" height="41"></rect><g class="label" transform="translate(0,0)"><g transform="translate(-42.78333282470703,-10.5)"><foreignObject width="85.56666564941406" height="21"><div xmlns="http://www.w3.org/1999/xhtml" style="display: inline-block; white-space: nowrap;">jenkinsfile2.3</div></foreignObject></g></g></g><g class="node" style="opacity: 1;" id="job4" transform="translate(1327.3249893188477,514)"><rect rx="0" ry="0" x="-96.7750015258789" y="-20.5" width="193.5500030517578" height="41"></rect><g class="label" transform="translate(0,0)"><g transform="translate(-86.7750015258789,-10.5)"><foreignObject width="173.5500030517578" height="21"><div xmlns="http://www.w3.org/1999/xhtml" style="display: inline-block; white-space: nowrap;">Content Repo 3 Jenkins Job</div></foreignObject></g></g></g><g class="node" style="opacity: 1;" id="jenkinsfile2.4" transform="translate(1099.3999862670898,738.25)"><rect rx="0" ry="0" x="-52.78333282470703" y="-20.5" width="105.56666564941406" height="41"></rect><g class="label" transform="translate(0,0)"><g transform="translate(-42.78333282470703,-10.5)"><foreignObject width="85.56666564941406" height="21"><div xmlns="http://www.w3.org/1999/xhtml" style="display: inline-block; white-space: nowrap;">jenkinsfile2.4</div></foreignObject></g></g></g><g class="node" style="opacity: 1;" id="job5" transform="translate(1327.3249893188477,738.25)"><rect rx="0" ry="0" x="-96.7750015258789" y="-20.5" width="193.5500030517578" height="41"></rect><g class="label" transform="translate(0,0)"><g transform="translate(-86.7750015258789,-10.5)"><foreignObject width="173.5500030517578" height="21"><div xmlns="http://www.w3.org/1999/xhtml" style="display: inline-block; white-space: nowrap;">Content Repo 4 Jenkins Job</div></foreignObject></g></g></g><g class="node" style="opacity: 1;" id="ctrl" transform="translate(320.2999954223633,423)"><rect rx="0" ry="0" x="-48.666664123535156" y="-20.5" width="97.33332824707031" height="41"></rect><g class="label" transform="translate(0,0)"><g transform="translate(-38.666664123535156,-10.5)"><foreignObject width="77.33332824707031" height="21"><div xmlns="http://www.w3.org/1999/xhtml" style="display: inline-block; white-space: nowrap;">control repo</div></foreignObject></g></g></g><g class="node" style="opacity: 1;" id="jenkinsfile1" transform="translate(515.658317565918,423)"><rect rx="0" ry="0" x="-46.541664123535156" y="-20.5" width="93.08332824707031" height="41"></rect><g class="label" transform="translate(0,0)"><g transform="translate(-36.541664123535156,-10.5)"><foreignObject width="73.08332824707031" height="21"><div xmlns="http://www.w3.org/1999/xhtml" style="display: inline-block; white-space: nowrap;">jenkinsfile1</div></foreignObject></g></g></g><g class="node" style="opacity: 1;" id="title" transform="translate(108.31666564941406,423)"><rect rx="0" ry="0" x="-88.31666564941406" y="-38" width="176.63333129882812" height="76" style="fill:#FFF;stroke:#FFF;"></rect><g class="label" transform="translate(0,0)"><g transform="translate(-78.31666564941406,-28)"><foreignObject width="156.63333129882812" height="56"><div xmlns="http://www.w3.org/1999/xhtml" style="display: inline-block; white-space: nowrap;"><b>Deconst Jenkins System</b><br><p>One Collection</p></div></foreignObject></g></g></g><g class="node" style="opacity: 1;" id="cr1" transform="translate(729.6833190917969,67.75)"><rect rx="0" ry="0" x="-58.400001525878906" y="-20.5" width="116.80000305175781" height="41"></rect><g class="label" transform="translate(0,0)"><g transform="translate(-48.400001525878906,-10.5)"><foreignObject width="96.80000305175781" height="21"><div xmlns="http://www.w3.org/1999/xhtml" style="display: inline-block; white-space: nowrap;">Content Repo 1</div></foreignObject></g></g></g><g class="node" style="opacity: 1;" id="cr2" transform="translate(729.6833190917969,181.5)"><rect rx="0" ry="0" x="-58.400001525878906" y="-20.5" width="116.80000305175781" height="41"></rect><g class="label" transform="translate(0,0)"><g transform="translate(-48.400001525878906,-10.5)"><foreignObject width="96.80000305175781" height="21"><div xmlns="http://www.w3.org/1999/xhtml" style="display: inline-block; white-space: nowrap;">Content Repo 2</div></foreignObject></g></g></g><g class="node" style="opacity: 1;" id="cr4" transform="translate(729.6833190917969,756)"><rect rx="0" ry="0" x="-58.400001525878906" y="-20.5" width="116.80000305175781" height="41"></rect><g class="label" transform="translate(0,0)"><g transform="translate(-48.400001525878906,-10.5)"><foreignObject width="96.80000305175781" height="21"><div xmlns="http://www.w3.org/1999/xhtml" style="display: inline-block; white-space: nowrap;">Content Repo 4</div></foreignObject></g></g></g><g class="node" style="opacity: 1;" id="cr3" transform="translate(729.6833190917969,650)"><rect rx="0" ry="0" x="-58.400001525878906" y="-20.5" width="116.80000305175781" height="41"></rect><g class="label" transform="translate(0,0)"><g transform="translate(-48.400001525878906,-10.5)"><foreignObject width="96.80000305175781" height="21"><div xmlns="http://www.w3.org/1999/xhtml" style="display: inline-block; white-space: nowrap;">Content Repo 3</div></foreignObject></g></g></g></g></g></g></svg>